contentOrAssetType,ruleName,constraintName,severity,category,description
cloudfunctions.googleapis.com/CloudFunction,GCPCloudfunctionServiceaccountConstraintV1,gcf_no_default_service_account,major,Identity and Access Management,CloudFunctions cannot use default service account.
cloudfunctions.googleapis.com/CloudFunction,GCPCloudfunctionEnvSecretConstraintV1,gcf_no_secrets_in_env_vars,critical,Secret Management,CloudFunction with ENV var containing suspicious keywords.
cloudfunctions.googleapis.com/CloudFunction,GCPCloudfunctionRuntimeConstraintV1,gcf_supported_runtimes_only,major,Debt Management,Google CloudFunctions must use supported runtime only.
cloudfunctions.googleapis.com/CloudFunction,GCPCloudfunctionLocationConstraintV1,gcf_location_europe,major,Personal Data Compliance,CloudFunctions must be located in europe.
bigquery.googleapis.com/Dataset,GCPBigQueryDatasetLocationConstraintV1,bq_dataset_location_europe,critical,Personal Data Compliance,BQ Dataset must be located in Europe.
IAM_POLICY,GCPIAMBindingsrolesConstraintV1,iam_no_owner_no_editor_on_folders,major,Identity and Access Management,"No owner role, no editor role on folders"
IAM_POLICY,GCPIAMBindingsrolesConstraintV1,iam_no_primitives_on_org,major,Identity and Access Management,Primitives roles are not authorized on organizations
IAM_POLICY,GCPIAMBindingsrolesConstraintV1,iam_no_billing_account_creator,minor,Identity and Access Management,"Only one billing account, not need to create any other."
IAM_POLICY,GCPIAMMembersConstraintV1,iam_no_domains_grants,major,Identity and Access Management,Grants to domains in IAM are forbidden.
IAM_POLICY,GCPIAMMembersConstraintV1,iam_no_public_access_bq_dataset_gcs_bucket,major,Identity and Access Management,Public access to BQ Datasets and GCS Buckets are forbidden.
IAM_POLICY,GCPIAMMembersConstraintV1,iam_no_users,major,Identity and Access Management,Named users are forbidden in IAM.
IAM_POLICY,GCPIAMMembersConstraintV1,iam_whitelisted_domains_only,major,Identity and Access Management,No adresses outside the domain whitelist are allowed in IAM.
