{
    "asset": {
        "name": "//cloudresourcemanager.googleapis.com/projects/83314339016",
        "owner": "",
        "violationResolver": "",
        "ancestryPathDisplayName": "organization_167600783936/folder_130591603166/project_83314339016",
        "ancestryPath": "organization/167600783936/folder/130591603166/project/83314339016",
        "ancestry_path": "organization/167600783936/folder/130591603166/project/83314339016",
        "ancestorsDisplayName": [
            "projects_83314339016",
            "folders_130591603166",
            "organizations_167600783936"
        ],
        "ancestors": [
            "projects/83314339016",
            "folders/130591603166",
            "organizations/167600783936"
        ],
        "assetType": "cloudresourcemanager.googleapis.com/Project",
        "asset_type": "cloudresourcemanager.googleapis.com/Project",
        "iamPolicy": {
            "bindings": [
                {
                    "members": [
                        "user:brunoreboul@google.com"
                    ],
                    "role": "roles/apigee.analyticsEditor"
                },
                {
                    "members": [
                        "serviceAccount:ramcli@brunore-orgops-prd.iam.gserviceaccount.com"
                    ],
                    "role": "roles/appengine.appAdmin"
                },
                {
                    "members": [
                        "serviceAccount:service-83314339016@gcp-gae-service.iam.gserviceaccount.com"
                    ],
                    "role": "roles/appengine.serviceAgent"
                },
                {
                    "members": [
                        "domain:ramtests.brunore.org"
                    ],
                    "role": "roles/browser"
                },
                {
                    "members": [
                        "serviceAccount:service-83314339016@gcp-sa-cloudasset.iam.gserviceaccount.com"
                    ],
                    "role": "roles/cloudasset.serviceAgent"
                },
                {
                    "members": [
                        "serviceAccount:83314339016@cloudbuild.gserviceaccount.com"
                    ],
                    "role": "roles/cloudbuild.builds.builder"
                },
                {
                    "members": [
                        "serviceAccount:service-83314339016@gcp-sa-cloudbuild.iam.gserviceaccount.com"
                    ],
                    "role": "roles/cloudbuild.serviceAgent"
                },
                {
                    "members": [
                        "serviceAccount:service-83314339016@gcf-admin-robot.iam.gserviceaccount.com"
                    ],
                    "role": "roles/cloudfunctions.serviceAgent"
                },
                {
                    "members": [
                        "serviceAccount:service-83314339016@compute-system.iam.gserviceaccount.com"
                    ],
                    "role": "roles/compute.serviceAgent"
                },
                {
                    "members": [
                        "serviceAccount:service-83314339016@container-engine-robot.iam.gserviceaccount.com"
                    ],
                    "role": "roles/container.serviceAgent"
                },
                {
                    "members": [
                        "serviceAccount:service-83314339016@containerregistry.iam.gserviceaccount.com"
                    ],
                    "role": "roles/containerregistry.ServiceAgent"
                },
                {
                    "members": [
                        "serviceAccount:83314339016-compute@developer.gserviceaccount.com",
                        "serviceAccount:83314339016@cloudservices.gserviceaccount.com",
                        "serviceAccount:brunore-ram-noncompliant@appspot.gserviceaccount.com",
                        "user:master@gs.brunore.org"
                    ],
                    "role": "roles/editor"
                },
                {
                    "members": [
                        "serviceAccount:service-83314339016@gcp-sa-firestore.iam.gserviceaccount.com"
                    ],
                    "role": "roles/firestore.serviceAgent"
                },
                {
                    "members": [
                        "serviceAccount:ramcli@brunore-orgops-prd.iam.gserviceaccount.com",
                        "user:brunoreboul@google.com",
                        "user:master@ramtests.brunore.org"
                    ],
                    "role": "roles/owner"
                },
                {
                    "members": [
                        "serviceAccount:ramcli@brunore-orgops-prd.iam.gserviceaccount.com"
                    ],
                    "role": "roles/storage.admin"
                }
            ],
            "etag": "BwXTp5Og_Ag="
        },
        "iam_policy": {
            "bindings": [
                {
                    "members": [
                        "user:brunoreboul@google.com"
                    ],
                    "role": "roles/apigee.analyticsEditor"
                },
                {
                    "members": [
                        "serviceAccount:ramcli@brunore-orgops-prd.iam.gserviceaccount.com"
                    ],
                    "role": "roles/appengine.appAdmin"
                },
                {
                    "members": [
                        "serviceAccount:service-83314339016@gcp-gae-service.iam.gserviceaccount.com"
                    ],
                    "role": "roles/appengine.serviceAgent"
                },
                {
                    "members": [
                        "domain:ramtests.brunore.org"
                    ],
                    "role": "roles/browser"
                },
                {
                    "members": [
                        "serviceAccount:service-83314339016@gcp-sa-cloudasset.iam.gserviceaccount.com"
                    ],
                    "role": "roles/cloudasset.serviceAgent"
                },
                {
                    "members": [
                        "serviceAccount:83314339016@cloudbuild.gserviceaccount.com"
                    ],
                    "role": "roles/cloudbuild.builds.builder"
                },
                {
                    "members": [
                        "serviceAccount:service-83314339016@gcp-sa-cloudbuild.iam.gserviceaccount.com"
                    ],
                    "role": "roles/cloudbuild.serviceAgent"
                },
                {
                    "members": [
                        "serviceAccount:service-83314339016@gcf-admin-robot.iam.gserviceaccount.com"
                    ],
                    "role": "roles/cloudfunctions.serviceAgent"
                },
                {
                    "members": [
                        "serviceAccount:service-83314339016@compute-system.iam.gserviceaccount.com"
                    ],
                    "role": "roles/compute.serviceAgent"
                },
                {
                    "members": [
                        "serviceAccount:service-83314339016@container-engine-robot.iam.gserviceaccount.com"
                    ],
                    "role": "roles/container.serviceAgent"
                },
                {
                    "members": [
                        "serviceAccount:service-83314339016@containerregistry.iam.gserviceaccount.com"
                    ],
                    "role": "roles/containerregistry.ServiceAgent"
                },
                {
                    "members": [
                        "serviceAccount:83314339016-compute@developer.gserviceaccount.com",
                        "serviceAccount:83314339016@cloudservices.gserviceaccount.com",
                        "serviceAccount:brunore-ram-noncompliant@appspot.gserviceaccount.com",
                        "user:master@gs.brunore.org"
                    ],
                    "role": "roles/editor"
                },
                {
                    "members": [
                        "serviceAccount:service-83314339016@gcp-sa-firestore.iam.gserviceaccount.com"
                    ],
                    "role": "roles/firestore.serviceAgent"
                },
                {
                    "members": [
                        "serviceAccount:ramcli@brunore-orgops-prd.iam.gserviceaccount.com",
                        "user:brunoreboul@google.com",
                        "user:master@ramtests.brunore.org"
                    ],
                    "role": "roles/owner"
                },
                {
                    "members": [
                        "serviceAccount:ramcli@brunore-orgops-prd.iam.gserviceaccount.com"
                    ],
                    "role": "roles/storage.admin"
                }
            ],
            "etag": "BwXTp5Og_Ag="
        },
        "resource": null,
        "projectID": ""
    },
    "deleted": false,
    "origin": "real-time",
    "window": {
        "startTime": "2021-12-21T12:59:33.35348Z"
    }
}